{
  "configVersion": 2,
  "packages": [
    {
      "name": "_fe_analyzer_shared",
      "rootUri": "file:///Users/baptisteguele/flutter/.pub-cache/hosted/pub.dartlang.org/_fe_analyzer_shared-27.0.0",
      "packageUri": "lib/",
      "languageVersion": "2.12"
    },
    {
      "name": "algolia",
      "rootUri": "file:///Users/baptisteguele/flutter/.pub-cache/hosted/pub.dartlang.org/algolia-1.0.1",
      "packageUri": "lib/",
      "languageVersion": "2.12"
    },
    {
      "name": "analyzer",
      "rootUri": "file:///Users/baptisteguele/flutter/.pub-cache/hosted/pub.dartlang.org/analyzer-2.4.0",
      "packageUri": "lib/",
      "languageVersion": "2.14"
    },
    {
      "name": "animations",
      "rootUri": "file:///Users/baptisteguele/flutter/.pub-cache/hosted/pub.dartlang.org/animations-1.1.2",
      "packageUri": "lib/",
      "languageVersion": "2.2"
    },
    {
      "name": "archive",
      "rootUri": "file:///Users/baptisteguele/flutter/.pub-cache/hosted/pub.dartlang.org/archive-3.1.6",
      "packageUri": "lib/",
      "languageVersion": "2.12"
    },
    {
      "name": "args",
      "rootUri": "file:///Users/baptisteguele/flutter/.pub-cache/hosted/pub.dartlang.org/args-2.3.0",
      "packageUri": "lib/",
      "languageVersion": "2.12"
    },
    {
      "name": "async",
      "rootUri": "file:///Users/baptisteguele/flutter/.pub-cache/hosted/pub.dartlang.org/async-2.8.2",
      "packageUri": "lib/",
      "languageVersion": "2.12"
    },
    {
      "name": "audio_session",
      "rootUri": "file:///Users/baptisteguele/flutter/.pub-cache/hosted/pub.dartlang.org/audio_session-0.1.6+1",
      "packageUri": "lib/",
      "languageVersion": "2.12"
    },
    {
      "name": "audioplayers",
      "rootUri": "file:///Users/baptisteguele/flutter/.pub-cache/hosted/pub.dartlang.org/audioplayers-0.20.1",
      "packageUri": "lib/",
      "languageVersion": "2.12"
    },
    {
      "name": "badges",
      "rootUri": "file:///Users/baptisteguele/flutter/.pub-cache/hosted/pub.dartlang.org/badges-2.0.1",
      "packageUri": "lib/",
      "languageVersion": "2.12"
    },
    {
      "name": "cached_network_image",
      "rootUri": "file:///Users/baptisteguele/flutter/.pub-cache/hosted/pub.dartlang.org/cached_network_image-3.1.0",
      "packageUri": "lib/",
      "languageVersion": "2.12"
    },
    {
      "name": "cached_network_image_platform_interface",
      "rootUri": "file:///Users/baptisteguele/flutter/.pub-cache/hosted/pub.dartlang.org/cached_network_image_platform_interface-1.0.0",
      "packageUri": "lib/",
      "languageVersion": "2.12"
    },
    {
      "name": "cached_network_image_web",
      "rootUri": "file:///Users/baptisteguele/flutter/.pub-cache/hosted/pub.dartlang.org/cached_network_image_web-1.0.1",
      "packageUri": "lib/",
      "languageVersion": "2.12"
    },
    {
      "name": "characters",
      "rootUri": "file:///Users/baptisteguele/flutter/.pub-cache/hosted/pub.dartlang.org/characters-1.2.0",
      "packageUri": "lib/",
      "languageVersion": "2.12"
    },
    {
      "name": "charcode",
      "rootUri": "file:///Users/baptisteguele/flutter/.pub-cache/hosted/pub.dartlang.org/charcode-1.3.1",
      "packageUri": "lib/",
      "languageVersion": "2.12"
    },
    {
      "name": "cli_util",
      "rootUri": "file:///Users/baptisteguele/flutter/.pub-cache/hosted/pub.dartlang.org/cli_util-0.3.4",
      "packageUri": "lib/",
      "languageVersion": "2.12"
    },
    {
      "name": "clock",
      "rootUri": "file:///Users/baptisteguele/flutter/.pub-cache/hosted/pub.dartlang.org/clock-1.1.0",
      "packageUri": "lib/",
      "languageVersion": "2.12"
    },
    {
      "name": "cloud_firestore",
      "rootUri": "file:///Users/baptisteguele/flutter/.pub-cache/hosted/pub.dartlang.org/cloud_firestore-3.1.0",
      "packageUri": "lib/",
      "languageVersion": "2.12"
    },
    {
      "name": "cloud_firestore_platform_interface",
      "rootUri": "file:///Users/baptisteguele/flutter/.pub-cache/hosted/pub.dartlang.org/cloud_firestore_platform_interface-5.4.5",
      "packageUri": "lib/",
      "languageVersion": "2.12"
    },
    {
      "name": "cloud_firestore_web",
      "rootUri": "file:///Users/baptisteguele/flutter/.pub-cache/hosted/pub.dartlang.org/cloud_firestore_web-2.5.0",
      "packageUri": "lib/",
      "languageVersion": "2.12"
    },
    {
      "name": "collection",
      "rootUri": "file:///Users/baptisteguele/flutter/.pub-cache/hosted/pub.dartlang.org/collection-1.15.0",
      "packageUri": "lib/",
      "languageVersion": "2.12"
    },
    {
      "name": "convert",
      "rootUri": "file:///Users/baptisteguele/flutter/.pub-cache/hosted/pub.dartlang.org/convert-3.0.1",
      "packageUri": "lib/",
      "languageVersion": "2.12"
    },
    {
      "name": "cross_file",
      "rootUri": "file:///Users/baptisteguele/flutter/.pub-cache/hosted/pub.dartlang.org/cross_file-0.3.1+5",
      "packageUri": "lib/",
      "languageVersion": "2.12"
    },
    {
      "name": "crypto",
      "rootUri": "file:///Users/baptisteguele/flutter/.pub-cache/hosted/pub.dartlang.org/crypto-3.0.1",
      "packageUri": "lib/",
      "languageVersion": "2.12"
    },
    {
      "name": "cupertino_icons",
      "rootUri": "file:///Users/baptisteguele/flutter/.pub-cache/hosted/pub.dartlang.org/cupertino_icons-0.1.3",
      "packageUri": "lib/",
      "languageVersion": "2.0"
    },
    {
      "name": "dotted_border",
      "rootUri": "file:///Users/baptisteguele/flutter/.pub-cache/hosted/pub.dartlang.org/dotted_border-2.0.0+1",
      "packageUri": "lib/",
      "languageVersion": "2.12"
    },
    {
      "name": "equatable",
      "rootUri": "file:///Users/baptisteguele/flutter/.pub-cache/hosted/pub.dartlang.org/equatable-2.0.3",
      "packageUri": "lib/",
      "languageVersion": "2.12"
    },
    {
      "name": "ffi",
      "rootUri": "file:///Users/baptisteguele/flutter/.pub-cache/hosted/pub.dartlang.org/ffi-1.1.2",
      "packageUri": "lib/",
      "languageVersion": "2.12"
    },
    {
      "name": "file",
      "rootUri": "file:///Users/baptisteguele/flutter/.pub-cache/hosted/pub.dartlang.org/file-6.1.2",
      "packageUri": "lib/",
      "languageVersion": "2.12"
    },
    {
      "name": "firebase",
      "rootUri": "file:///Users/baptisteguele/flutter/.pub-cache/hosted/pub.dartlang.org/firebase-9.0.2",
      "packageUri": "lib/",
      "languageVersion": "2.12"
    },
    {
      "name": "firebase_analytics",
      "rootUri": "file:///Users/baptisteguele/flutter/.pub-cache/hosted/pub.dartlang.org/firebase_analytics-8.3.4",
      "packageUri": "lib/",
      "languageVersion": "2.12"
    },
    {
      "name": "firebase_analytics_platform_interface",
      "rootUri": "file:///Users/baptisteguele/flutter/.pub-cache/hosted/pub.dartlang.org/firebase_analytics_platform_interface-2.0.1",
      "packageUri": "lib/",
      "languageVersion": "2.12"
    },
    {
      "name": "firebase_analytics_web",
      "rootUri": "file:///Users/baptisteguele/flutter/.pub-cache/hosted/pub.dartlang.org/firebase_analytics_web-0.3.0+1",
      "packageUri": "lib/",
      "languageVersion": "2.12"
    },
    {
      "name": "firebase_auth",
      "rootUri": "file:///Users/baptisteguele/flutter/.pub-cache/hosted/pub.dartlang.org/firebase_auth-3.2.0",
      "packageUri": "lib/",
      "languageVersion": "2.12"
    },
    {
      "name": "firebase_auth_platform_interface",
      "rootUri": "file:///Users/baptisteguele/flutter/.pub-cache/hosted/pub.dartlang.org/firebase_auth_platform_interface-6.1.4",
      "packageUri": "lib/",
      "languageVersion": "2.12"
    },
    {
      "name": "firebase_auth_web",
      "rootUri": "file:///Users/baptisteguele/flutter/.pub-cache/hosted/pub.dartlang.org/firebase_auth_web-3.2.0",
      "packageUri": "lib/",
      "languageVersion": "2.12"
    },
    {
      "name": "firebase_core",
      "rootUri": "file:///Users/baptisteguele/flutter/.pub-cache/hosted/pub.dartlang.org/firebase_core-1.10.0",
      "packageUri": "lib/",
      "languageVersion": "2.12"
    },
    {
      "name": "firebase_core_platform_interface",
      "rootUri": "file:///Users/baptisteguele/flutter/.pub-cache/hosted/pub.dartlang.org/firebase_core_platform_interface-4.1.0",
      "packageUri": "lib/",
      "languageVersion": "2.12"
    },
    {
      "name": "firebase_core_web",
      "rootUri": "file:///Users/baptisteguele/flutter/.pub-cache/hosted/pub.dartlang.org/firebase_core_web-1.2.0",
      "packageUri": "lib/",
      "languageVersion": "2.12"
    },
    {
      "name": "firebase_storage",
      "rootUri": "file:///Users/baptisteguele/flutter/.pub-cache/hosted/pub.dartlang.org/firebase_storage-10.1.0",
      "packageUri": "lib/",
      "languageVersion": "2.12"
    },
    {
      "name": "firebase_storage_platform_interface",
      "rootUri": "file:///Users/baptisteguele/flutter/.pub-cache/hosted/pub.dartlang.org/firebase_storage_platform_interface-4.0.6",
      "packageUri": "lib/",
      "languageVersion": "2.12"
    },
    {
      "name": "firebase_storage_web",
      "rootUri": "file:///Users/baptisteguele/flutter/.pub-cache/hosted/pub.dartlang.org/firebase_storage_web-3.1.0",
      "packageUri": "lib/",
      "languageVersion": "2.12"
    },
    {
      "name": "flutter",
      "rootUri": "file:///Users/baptisteguele/flutter/packages/flutter",
      "packageUri": "lib/",
      "languageVersion": "2.12"
    },
    {
      "name": "flutter_blurhash",
      "rootUri": "file:///Users/baptisteguele/flutter/.pub-cache/hosted/pub.dartlang.org/flutter_blurhash-0.6.0",
      "packageUri": "lib/",
      "languageVersion": "2.12"
    },
    {
      "name": "flutter_cache_manager",
      "rootUri": "file:///Users/baptisteguele/flutter/.pub-cache/hosted/pub.dartlang.org/flutter_cache_manager-3.1.2",
      "packageUri": "lib/",
      "languageVersion": "2.12"
    },
    {
      "name": "flutter_launcher_icons",
      "rootUri": "file:///Users/baptisteguele/flutter/.pub-cache/hosted/pub.dartlang.org/flutter_launcher_icons-0.9.2",
      "packageUri": "lib/",
      "languageVersion": "2.12"
    },
    {
      "name": "flutter_localizations",
      "rootUri": "file:///Users/baptisteguele/flutter/packages/flutter_localizations",
      "packageUri": "lib/",
      "languageVersion": "2.12"
    },
    {
      "name": "flutter_plugin_android_lifecycle",
      "rootUri": "file:///Users/baptisteguele/flutter/.pub-cache/hosted/pub.dartlang.org/flutter_plugin_android_lifecycle-2.0.3",
      "packageUri": "lib/",
      "languageVersion": "2.12"
    },
    {
      "name": "flutter_rating_bar",
      "rootUri": "file:///Users/baptisteguele/flutter/.pub-cache/hosted/pub.dartlang.org/flutter_rating_bar-4.0.0",
      "packageUri": "lib/",
      "languageVersion": "2.12"
    },
    {
      "name": "flutter_slidable",
      "rootUri": "file:///Users/baptisteguele/flutter/.pub-cache/hosted/pub.dartlang.org/flutter_slidable-0.6.0",
      "packageUri": "lib/",
      "languageVersion": "2.12"
    },
    {
      "name": "flutter_svg",
      "rootUri": "file:///Users/baptisteguele/flutter/.pub-cache/hosted/pub.dartlang.org/flutter_svg-0.22.0",
      "packageUri": "lib/",
      "languageVersion": "2.12"
    },
    {
      "name": "flutter_web_plugins",
      "rootUri": "file:///Users/baptisteguele/flutter/packages/flutter_web_plugins",
      "packageUri": "lib/",
      "languageVersion": "2.12"
    },
    {
      "name": "get_it",
      "rootUri": "file:///Users/baptisteguele/flutter/.pub-cache/hosted/pub.dartlang.org/get_it-7.2.0",
      "packageUri": "lib/",
      "languageVersion": "2.12"
    },
    {
      "name": "gettext_parser",
      "rootUri": "file:///Users/baptisteguele/flutter/.pub-cache/hosted/pub.dartlang.org/gettext_parser-0.2.0",
      "packageUri": "lib/",
      "languageVersion": "2.12"
    },
    {
      "name": "glob",
      "rootUri": "file:///Users/baptisteguele/flutter/.pub-cache/hosted/pub.dartlang.org/glob-2.0.2",
      "packageUri": "lib/",
      "languageVersion": "2.14"
    },
    {
      "name": "http",
      "rootUri": "file:///Users/baptisteguele/flutter/.pub-cache/hosted/pub.dartlang.org/http-0.13.4",
      "packageUri": "lib/",
      "languageVersion": "2.14"
    },
    {
      "name": "http_parser",
      "rootUri": "file:///Users/baptisteguele/flutter/.pub-cache/hosted/pub.dartlang.org/http_parser-4.0.0",
      "packageUri": "lib/",
      "languageVersion": "2.12"
    },
    {
      "name": "i18n_extension",
      "rootUri": "file:///Users/baptisteguele/flutter/.pub-cache/hosted/pub.dartlang.org/i18n_extension-4.1.3",
      "packageUri": "lib/",
      "languageVersion": "2.12"
    },
    {
      "name": "image",
      "rootUri": "file:///Users/baptisteguele/flutter/.pub-cache/hosted/pub.dartlang.org/image-3.0.8",
      "packageUri": "lib/",
      "languageVersion": "2.12"
    },
    {
      "name": "image_picker",
      "rootUri": "file:///Users/baptisteguele/flutter/.pub-cache/hosted/pub.dartlang.org/image_picker-0.8.4+2",
      "packageUri": "lib/",
      "languageVersion": "2.14"
    },
    {
      "name": "image_picker_for_web",
      "rootUri": "file:///Users/baptisteguele/flutter/.pub-cache/hosted/pub.dartlang.org/image_picker_for_web-2.1.3",
      "packageUri": "lib/",
      "languageVersion": "2.12"
    },
    {
      "name": "image_picker_platform_interface",
      "rootUri": "file:///Users/baptisteguele/flutter/.pub-cache/hosted/pub.dartlang.org/image_picker_platform_interface-2.4.1",
      "packageUri": "lib/",
      "languageVersion": "2.12"
    },
    {
      "name": "intl",
      "rootUri": "file:///Users/baptisteguele/flutter/.pub-cache/hosted/pub.dartlang.org/intl-0.17.0",
      "packageUri": "lib/",
      "languageVersion": "2.12"
    },
    {
      "name": "js",
      "rootUri": "file:///Users/baptisteguele/flutter/.pub-cache/hosted/pub.dartlang.org/js-0.6.3",
      "packageUri": "lib/",
      "languageVersion": "2.12"
    },
    {
      "name": "just_audio",
      "rootUri": "file:///Users/baptisteguele/flutter/.pub-cache/hosted/pub.dartlang.org/just_audio-0.9.12",
      "packageUri": "lib/",
      "languageVersion": "2.12"
    },
    {
      "name": "just_audio_platform_interface",
      "rootUri": "file:///Users/baptisteguele/flutter/.pub-cache/hosted/pub.dartlang.org/just_audio_platform_interface-4.0.0",
      "packageUri": "lib/",
      "languageVersion": "2.12"
    },
    {
      "name": "just_audio_web",
      "rootUri": "file:///Users/baptisteguele/flutter/.pub-cache/hosted/pub.dartlang.org/just_audio_web-0.4.2",
      "packageUri": "lib/",
      "languageVersion": "2.12"
    },
    {
      "name": "meta",
      "rootUri": "file:///Users/baptisteguele/flutter/.pub-cache/hosted/pub.dartlang.org/meta-1.7.0",
      "packageUri": "lib/",
      "languageVersion": "2.12"
    },
    {
      "name": "nested",
      "rootUri": "file:///Users/baptisteguele/flutter/.pub-cache/hosted/pub.dartlang.org/nested-1.0.0",
      "packageUri": "lib/",
      "languageVersion": "2.12"
    },
    {
      "name": "octo_image",
      "rootUri": "file:///Users/baptisteguele/flutter/.pub-cache/hosted/pub.dartlang.org/octo_image-1.0.0+1",
      "packageUri": "lib/",
      "languageVersion": "2.12"
    },
    {
      "name": "package_config",
      "rootUri": "file:///Users/baptisteguele/flutter/.pub-cache/hosted/pub.dartlang.org/package_config-2.0.2",
      "packageUri": "lib/",
      "languageVersion": "2.12"
    },
    {
      "name": "path",
      "rootUri": "file:///Users/baptisteguele/flutter/.pub-cache/hosted/pub.dartlang.org/path-1.8.0",
      "packageUri": "lib/",
      "languageVersion": "2.12"
    },
    {
      "name": "path_drawing",
      "rootUri": "file:///Users/baptisteguele/flutter/.pub-cache/hosted/pub.dartlang.org/path_drawing-0.5.1",
      "packageUri": "lib/",
      "languageVersion": "2.12"
    },
    {
      "name": "path_parsing",
      "rootUri": "file:///Users/baptisteguele/flutter/.pub-cache/hosted/pub.dartlang.org/path_parsing-0.2.1",
      "packageUri": "lib/",
      "languageVersion": "2.12"
    },
    {
      "name": "path_provider",
      "rootUri": "file:///Users/baptisteguele/flutter/.pub-cache/hosted/pub.dartlang.org/path_provider-2.0.5",
      "packageUri": "lib/",
      "languageVersion": "2.14"
    },
    {
      "name": "path_provider_linux",
      "rootUri": "file:///Users/baptisteguele/flutter/.pub-cache/hosted/pub.dartlang.org/path_provider_linux-2.1.0",
      "packageUri": "lib/",
      "languageVersion": "2.12"
    },
    {
      "name": "path_provider_macos",
      "rootUri": "file:///Users/baptisteguele/flutter/.pub-cache/hosted/pub.dartlang.org/path_provider_macos-2.0.2",
      "packageUri": "lib/",
      "languageVersion": "2.12"
    },
    {
      "name": "path_provider_platform_interface",
      "rootUri": "file:///Users/baptisteguele/flutter/.pub-cache/hosted/pub.dartlang.org/path_provider_platform_interface-2.0.1",
      "packageUri": "lib/",
      "languageVersion": "2.12"
    },
    {
      "name": "path_provider_windows",
      "rootUri": "file:///Users/baptisteguele/flutter/.pub-cache/hosted/pub.dartlang.org/path_provider_windows-2.0.3",
      "packageUri": "lib/",
      "languageVersion": "2.12"
    },
    {
      "name": "pedantic",
      "rootUri": "file:///Users/baptisteguele/flutter/.pub-cache/hosted/pub.dartlang.org/pedantic-1.11.1",
      "packageUri": "lib/",
      "languageVersion": "2.12"
    },
    {
      "name": "petitparser",
      "rootUri": "file:///Users/baptisteguele/flutter/.pub-cache/hosted/pub.dartlang.org/petitparser-4.3.0",
      "packageUri": "lib/",
      "languageVersion": "2.14"
    },
    {
      "name": "platform",
      "rootUri": "file:///Users/baptisteguele/flutter/.pub-cache/hosted/pub.dartlang.org/platform-3.0.2",
      "packageUri": "lib/",
      "languageVersion": "2.12"
    },
    {
      "name": "plugin_platform_interface",
      "rootUri": "file:///Users/baptisteguele/flutter/.pub-cache/hosted/pub.dartlang.org/plugin_platform_interface-2.0.2",
      "packageUri": "lib/",
      "languageVersion": "2.12"
    },
    {
      "name": "process",
      "rootUri": "file:///Users/baptisteguele/flutter/.pub-cache/hosted/pub.dartlang.org/process-4.2.3",
      "packageUri": "lib/",
      "languageVersion": "2.12"
    },
    {
      "name": "provider",
      "rootUri": "file:///Users/baptisteguele/flutter/.pub-cache/hosted/pub.dartlang.org/provider-6.0.1",
      "packageUri": "lib/",
      "languageVersion": "2.12"
    },
    {
      "name": "pub_semver",
      "rootUri": "file:///Users/baptisteguele/flutter/.pub-cache/hosted/pub.dartlang.org/pub_semver-2.1.0",
      "packageUri": "lib/",
      "languageVersion": "2.12"
    },
    {
      "name": "record",
      "rootUri": "file:///Users/baptisteguele/flutter/.pub-cache/hosted/pub.dartlang.org/record-3.0.0",
      "packageUri": "lib/",
      "languageVersion": "2.12"
    },
    {
      "name": "record_platform_interface",
      "rootUri": "file:///Users/baptisteguele/flutter/.pub-cache/hosted/pub.dartlang.org/record_platform_interface-0.1.0",
      "packageUri": "lib/",
      "languageVersion": "2.12"
    },
    {
      "name": "record_web",
      "rootUri": "file:///Users/baptisteguele/flutter/.pub-cache/hosted/pub.dartlang.org/record_web-0.1.0",
      "packageUri": "lib/",
      "languageVersion": "2.12"
    },
    {
      "name": "rxdart",
      "rootUri": "file:///Users/baptisteguele/flutter/.pub-cache/hosted/pub.dartlang.org/rxdart-0.27.2",
      "packageUri": "lib/",
      "languageVersion": "2.12"
    },
    {
      "name": "sky_engine",
      "rootUri": "file:///Users/baptisteguele/flutter/bin/cache/pkg/sky_engine",
      "packageUri": "lib/",
      "languageVersion": "2.12"
    },
    {
      "name": "source_span",
      "rootUri": "file:///Users/baptisteguele/flutter/.pub-cache/hosted/pub.dartlang.org/source_span-1.8.1",
      "packageUri": "lib/",
      "languageVersion": "2.12"
    },
    {
      "name": "sprintf",
      "rootUri": "file:///Users/baptisteguele/flutter/.pub-cache/hosted/pub.dartlang.org/sprintf-6.0.0",
      "packageUri": "lib/",
      "languageVersion": "2.12"
    },
    {
      "name": "sqflite",
      "rootUri": "file:///Users/baptisteguele/flutter/.pub-cache/hosted/pub.dartlang.org/sqflite-2.0.0+4",
      "packageUri": "lib/",
      "languageVersion": "2.12"
    },
    {
      "name": "sqflite_common",
      "rootUri": "file:///Users/baptisteguele/flutter/.pub-cache/hosted/pub.dartlang.org/sqflite_common-2.0.1+1",
      "packageUri": "lib/",
      "languageVersion": "2.12"
    },
    {
      "name": "string_scanner",
      "rootUri": "file:///Users/baptisteguele/flutter/.pub-cache/hosted/pub.dartlang.org/string_scanner-1.1.0",
      "packageUri": "lib/",
      "languageVersion": "2.12"
    },
    {
      "name": "synchronized",
      "rootUri": "file:///Users/baptisteguele/flutter/.pub-cache/hosted/pub.dartlang.org/synchronized-3.0.0",
      "packageUri": "lib/",
      "languageVersion": "2.12"
    },
    {
      "name": "term_glyph",
      "rootUri": "file:///Users/baptisteguele/flutter/.pub-cache/hosted/pub.dartlang.org/term_glyph-1.2.0",
      "packageUri": "lib/",
      "languageVersion": "2.12"
    },
    {
      "name": "typed_data",
      "rootUri": "file:///Users/baptisteguele/flutter/.pub-cache/hosted/pub.dartlang.org/typed_data-1.3.0",
      "packageUri": "lib/",
      "languageVersion": "2.12"
    },
    {
      "name": "uuid",
      "rootUri": "file:///Users/baptisteguele/flutter/.pub-cache/hosted/pub.dartlang.org/uuid-3.0.5",
      "packageUri": "lib/",
      "languageVersion": "2.12"
    },
    {
      "name": "vector_math",
      "rootUri": "file:///Users/baptisteguele/flutter/.pub-cache/hosted/pub.dartlang.org/vector_math-2.1.0",
      "packageUri": "lib/",
      "languageVersion": "2.12"
    },
    {
      "name": "watcher",
      "rootUri": "file:///Users/baptisteguele/flutter/.pub-cache/hosted/pub.dartlang.org/watcher-1.0.1",
      "packageUri": "lib/",
      "languageVersion": "2.14"
    },
    {
      "name": "win32",
      "rootUri": "file:///Users/baptisteguele/flutter/.pub-cache/hosted/pub.dartlang.org/win32-2.2.9",
      "packageUri": "lib/",
      "languageVersion": "2.13"
    },
    {
      "name": "xdg_directories",
      "rootUri": "file:///Users/baptisteguele/flutter/.pub-cache/hosted/pub.dartlang.org/xdg_directories-0.2.0",
      "packageUri": "lib/",
      "languageVersion": "2.12"
    },
    {
      "name": "xml",
      "rootUri": "file:///Users/baptisteguele/flutter/.pub-cache/hosted/pub.dartlang.org/xml-5.3.0",
      "packageUri": "lib/",
      "languageVersion": "2.14"
    },
    {
      "name": "yaml",
      "rootUri": "file:///Users/baptisteguele/flutter/.pub-cache/hosted/pub.dartlang.org/yaml-3.1.0",
      "packageUri": "lib/",
      "languageVersion": "2.12"
    },
    {
      "name": "invister",
      "rootUri": "../",
      "packageUri": "lib/",
      "languageVersion": "2.12"
    }
  ],
  "generated": "2021-11-23T08:34:50.867907Z",
  "generator": "pub",
  "generatorVersion": "2.15.0-116.0.dev"
}
